{
  "description": "A text message being sent to either global, party, or another client",
  "type": "object",
  "required":["recipient","text"],
  "additionalProperties": false,
  "properties":{
    "recipient":{
        "description": "Who the message is for, either 'party','global', or another client ID",
        "type":"string"
    },
    "text":{
        "description": "The actual text of the message",
        "type":"string"
    }
  }
}